Tópico 1: Introdução ao R
…
Carregar pacotes: library(nome-do-pacote). Para carregar o pacote, não é necessário utilizar aspas.

library(tidyverse)

dplyr::filter(): pacote::funcao().

# Instalar pacotes do GitHub
install.packages("remotes")
library(remotes)
install_github("cienciadedatos/dados")

library(dados)
pinguins

# A tibble: 344 × 8
   especie        ilha  comprimento_bico profundidade_bico comprimento_nadadeira
   <fct>          <fct>            <dbl>             <dbl>                 <int>
 1 Pinguim-de-ad… Torg…             39.1              18.7                   181
 2 Pinguim-de-ad… Torg…             39.5              17.4                   186
 3 Pinguim-de-ad… Torg…             40.3              18                     195
 4 Pinguim-de-ad… Torg…             NA                NA                      NA
 5 Pinguim-de-ad… Torg…             36.7              19.3                   193
 6 Pinguim-de-ad… Torg…             39.3              20.6                   190
 7 Pinguim-de-ad… Torg…             38.9              17.8                   181
 8 Pinguim-de-ad… Torg…             39.2              19.6                   195
 9 Pinguim-de-ad… Torg…             34.1              18.1                   193
10 Pinguim-de-ad… Torg…             42                20.2                   190
# ℹ 334 more rows
# ℹ 3 more variables: massa_corporal <int>, sexo <fct>, ano <int>
…
