Tópico 2 - Importação de dados
…
# selecionar_colunas(tabela, c(colunas_que_realmente_vai_usar))

# selecionar da tabela dados_pnud as colunas
select(dados_pnud, ano, muni_nm, espvida,  pop)

# A tibble: 16,686 × 4
     ano muni_nm               espvida   pop
   <dbl> <chr>                   <dbl> <dbl>
 1  1991 ALTA FLORESTA D'OESTE    62.0 22835
 2  1991 ARIQUEMES                66.0 55018
 3  1991 CABIXI                   63.2  5846
 4  1991 CACOAL                   65.0 66534
 5  1991 CEREJEIRAS               62.7 19030
 6  1991 COLORADO DO OESTE        64.5 25070
 7  1991 CORUMBIARA               59.3 10737
 8  1991 COSTA MARQUES            62.8  6902
 9  1991 ESPIGÃO D'OESTE          64.2 22505
10  1991 GUAJARÁ-MIRIM            64.7 31240
# ℹ 16,676 more rows
…
`summarise()` has grouped output by 'regiao_nm'. You can override using the
`.groups` argument.

# A tibble: 27 × 3
# Groups:   regiao_nm [5]
   regiao_nm    uf_sigla media_esp_vida
   <chr>        <chr>             <dbl>
 1 Centro-Oeste DF                 77.4
 2 Sul          SC                 75.8
 3 Sul          RS                 75.4
 4 Sudeste      SP                 75.2
 5 Sudeste      ES                 74.5
 6 Centro-Oeste GO                 74.5
 7 Sudeste      MG                 74.4
 8 Centro-Oeste MS                 74.3
 9 Sul          PR                 74.2
10 Centro-Oeste MT                 74.0
# ℹ 17 more rows
…
Exercício: Use a função aprendida para criar um vetor com as siglas dos estados do Brasil.

sort(unique(dados_pnud$uf_sigla))

 [1] "AC" "AL" "AM" "AP" "BA" "CE" "DF" "ES" "GO" "MA" "MG" "MS" "MT" "PA" "PB"
[16] "PE" "PI" "PR" "RJ" "RN" "RO" "RR" "RS" "SC" "SE" "SP" "TO"

distinct(dados_pnud, regiao_nm, uf_sigla, ano) |> 
  arrange(uf_sigla)

# A tibble: 81 × 3
   regiao_nm uf_sigla   ano
   <chr>     <chr>    <dbl>
 1 Norte     AC        1991
 2 Norte     AC        2000
 3 Norte     AC        2010
 4 Nordeste  AL        1991
 5 Nordeste  AL        2000
 6 Nordeste  AL        2010
 7 Norte     AM        1991
 8 Norte     AM        2000
 9 Norte     AM        2010
10 Norte     AP        1991
# ℹ 71 more rows
…
