Tópico 3 - Manipulação de dados com dplyr
…
mutate(): cria novas colunas da base de dados (ou atualiza as colunas existentes)

group_by() + summarise(): agrupa e sumariza da base de dados

select

Podemos selecionar colunas da base de dados com a função select().

Sintaxe: select(nome_da_base, regras_para_selecionar_colunas)

Selecionando uma coluna:

select(dados_pnud, muni_nm)

# A tibble: 16,686 × 1
   muni_nm              
   <chr>                
 1 ALTA FLORESTA D'OESTE
 2 ARIQUEMES            
 3 CABIXI               
 4 CACOAL               
 5 CEREJEIRAS           
 6 COLORADO DO OESTE    
 7 CORUMBIARA           
 8 COSTA MARQUES        
 9 ESPIGÃO D'OESTE      
10 GUAJARÁ-MIRIM        
# ℹ 16,676 more rows

Obs: Enquanto a gente não usar a atribuição <-, o objeto não é alterado!

Selecionando várias colunas:

select(dados_pnud, muni_nm, uf_sigla, pop)

# A tibble: 16,686 × 3
   muni_nm               uf_sigla   pop
   <chr>                 <chr>    <dbl>
 1 ALTA FLORESTA D'OESTE RO       22835
 2 ARIQUEMES             RO       55018
 3 CABIXI                RO        5846
 4 CACOAL                RO       66534
 5 CEREJEIRAS            RO       19030
 6 COLORADO DO OESTE     RO       25070
 7 CORUMBIARA            RO       10737
 8 COSTA MARQUES         RO        6902
 9 ESPIGÃO D'OESTE       RO       22505
10 GUAJARÁ-MIRIM         RO       31240
# ℹ 16,676 more rows

A função select respeita a ordem das colunas:

select(dados_pnud, uf_sigla, muni_nm, pop)

# A tibble: 16,686 × 3
   uf_sigla muni_nm                 pop
   <chr>    <chr>                 <dbl>
 1 RO       ALTA FLORESTA D'OESTE 22835
 2 RO       ARIQUEMES             55018
 3 RO       CABIXI                 5846
 4 RO       CACOAL                66534
 5 RO       CEREJEIRAS            19030
 6 RO       COLORADO DO OESTE     25070
 7 RO       CORUMBIARA            10737
 8 RO       COSTA MARQUES          6902
 9 RO       ESPIGÃO D'OESTE       22505
10 RO       GUAJARÁ-MIRIM         31240
# ℹ 16,676 more rows

O operador : pode ser usado aqui para selecionar uma sequência de colunas:

1:10

 [1]  1  2  3  4  5  6  7  8  9 10

select(dados_pnud, muni_nm:regiao_nm)

# A tibble: 16,686 × 3
   muni_nm               uf_sigla regiao_nm
   <chr>                 <chr>    <chr>    
 1 ALTA FLORESTA D'OESTE RO       Norte    
 2 ARIQUEMES             RO       Norte    
 3 CABIXI                RO       Norte    
 4 CACOAL                RO       Norte    
 5 CEREJEIRAS            RO       Norte    
 6 COLORADO DO OESTE     RO       Norte    
 7 CORUMBIARA            RO       Norte    
 8 COSTA MARQUES         RO       Norte    
 9 ESPIGÃO D'OESTE       RO       Norte    
10 GUAJARÁ-MIRIM         RO       Norte    
# ℹ 16,676 more rows

select(dados_pnud, muni_nm:regiao_nm, lat:lon)

# A tibble: 16,686 × 5
   muni_nm               uf_sigla regiao_nm    lat   lon
   <chr>                 <chr>    <chr>      <dbl> <dbl>
 1 ALTA FLORESTA D'OESTE RO       Norte     -11.9  -62.0
 2 ARIQUEMES             RO       Norte      -9.91 -63.0
 3 CABIXI                RO       Norte     -13.5  -60.5
 4 CACOAL                RO       Norte     -11.4  -61.4
 5 CEREJEIRAS            RO       Norte     -13.2  -60.8
 6 COLORADO DO OESTE     RO       Norte     -13.1  -60.5
 7 CORUMBIARA            RO       Norte     -13.0  -60.9
 8 COSTA MARQUES         RO       Norte     -12.4  -64.2
 9 ESPIGÃO D'OESTE       RO       Norte     -11.5  -61.0
10 GUAJARÁ-MIRIM         RO       Norte     -10.8  -65.3
# ℹ 16,676 more rows

Podemos selecionar colunas por exclusão:

select(dados_pnud, -muni_id)

# A tibble: 16,686 × 14
     ano muni_nm     uf_sigla regiao_nm  idhm idhm_e idhm_l idhm_r espvida  rdpc
   <dbl> <chr>       <chr>    <chr>     <dbl>  <dbl>  <dbl>  <dbl>   <dbl> <dbl>
 1  1991 ALTA FLORE… RO       Norte     0.329  0.112  0.617  0.516    62.0 198. 
 2  1991 ARIQUEMES   RO       Norte     0.432  0.199  0.684  0.593    66.0 319. 
 3  1991 CABIXI      RO       Norte     0.309  0.108  0.636  0.43     63.2 116. 
 4  1991 CACOAL      RO       Norte     0.407  0.171  0.667  0.593    65.0 320. 
 5  1991 CEREJEIRAS  RO       Norte     0.386  0.167  0.629  0.547    62.7 240. 
 6  1991 COLORADO D… RO       Norte     0.376  0.151  0.658  0.536    64.5 225. 
 7  1991 CORUMBIARA  RO       Norte     0.203  0.039  0.572  0.373    59.3  81.4
 8  1991 COSTA MARQ… RO       Norte     0.425  0.22   0.629  0.553    62.8 250. 
 9  1991 ESPIGÃO D'… RO       Norte     0.388  0.159  0.653  0.561    64.2 263. 
10  1991 GUAJARÁ-MI… RO       Norte     0.468  0.247  0.662  0.625    64.7 391. 
# ℹ 16,676 more rows
# ℹ 4 more variables: gini <dbl>, pop <dbl>, lat <dbl>, lon <dbl>

select(dados_pnud, -c(lat, lon))

# A tibble: 16,686 × 13
     ano muni_id muni_nm   uf_sigla regiao_nm  idhm idhm_e idhm_l idhm_r espvida
   <dbl>   <dbl> <chr>     <chr>    <chr>     <dbl>  <dbl>  <dbl>  <dbl>   <dbl>
 1  1991 1100015 ALTA FLO… RO       Norte     0.329  0.112  0.617  0.516    62.0
 2  1991 1100023 ARIQUEMES RO       Norte     0.432  0.199  0.684  0.593    66.0
 3  1991 1100031 CABIXI    RO       Norte     0.309  0.108  0.636  0.43     63.2
 4  1991 1100049 CACOAL    RO       Norte     0.407  0.171  0.667  0.593    65.0
 5  1991 1100056 CEREJEIR… RO       Norte     0.386  0.167  0.629  0.547    62.7
 6  1991 1100064 COLORADO… RO       Norte     0.376  0.151  0.658  0.536    64.5
 7  1991 1100072 CORUMBIA… RO       Norte     0.203  0.039  0.572  0.373    59.3
 8  1991 1100080 COSTA MA… RO       Norte     0.425  0.22   0.629  0.553    62.8
 9  1991 1100098 ESPIGÃO … RO       Norte     0.388  0.159  0.653  0.561    64.2
10  1991 1100106 GUAJARÁ-… RO       Norte     0.468  0.247  0.662  0.625    64.7
# ℹ 16,676 more rows
# ℹ 3 more variables: rdpc <dbl>, gini <dbl>, pop <dbl>

select(dados_pnud, -lat, -lon)

# A tibble: 16,686 × 13
     ano muni_id muni_nm   uf_sigla regiao_nm  idhm idhm_e idhm_l idhm_r espvida
   <dbl>   <dbl> <chr>     <chr>    <chr>     <dbl>  <dbl>  <dbl>  <dbl>   <dbl>
 1  1991 1100015 ALTA FLO… RO       Norte     0.329  0.112  0.617  0.516    62.0
 2  1991 1100023 ARIQUEMES RO       Norte     0.432  0.199  0.684  0.593    66.0
 3  1991 1100031 CABIXI    RO       Norte     0.309  0.108  0.636  0.43     63.2
 4  1991 1100049 CACOAL    RO       Norte     0.407  0.171  0.667  0.593    65.0
 5  1991 1100056 CEREJEIR… RO       Norte     0.386  0.167  0.629  0.547    62.7
 6  1991 1100064 COLORADO… RO       Norte     0.376  0.151  0.658  0.536    64.5
 7  1991 1100072 CORUMBIA… RO       Norte     0.203  0.039  0.572  0.373    59.3
 8  1991 1100080 COSTA MA… RO       Norte     0.425  0.22   0.629  0.553    62.8
 9  1991 1100098 ESPIGÃO … RO       Norte     0.388  0.159  0.653  0.561    64.2
10  1991 1100106 GUAJARÁ-… RO       Norte     0.468  0.247  0.662  0.625    64.7
# ℹ 16,676 more rows
# ℹ 3 more variables: rdpc <dbl>, gini <dbl>, pop <dbl>

# nome da coluna começa com um texto
select(dados_pnud, starts_with("muni"))

# A tibble: 16,686 × 2
   muni_id muni_nm              
     <dbl> <chr>                
 1 1100015 ALTA FLORESTA D'OESTE
 2 1100023 ARIQUEMES            
 3 1100031 CABIXI               
 4 1100049 CACOAL               
 5 1100056 CEREJEIRAS           
 6 1100064 COLORADO DO OESTE    
 7 1100072 CORUMBIARA           
 8 1100080 COSTA MARQUES        
 9 1100098 ESPIGÃO D'OESTE      
10 1100106 GUAJARÁ-MIRIM        
# ℹ 16,676 more rows

# nome da coluna termina com um texto
select(dados_pnud, ends_with("nm"))

# A tibble: 16,686 × 2
   muni_nm               regiao_nm
   <chr>                 <chr>    
 1 ALTA FLORESTA D'OESTE Norte    
 2 ARIQUEMES             Norte    
 3 CABIXI                Norte    
 4 CACOAL                Norte    
 5 CEREJEIRAS            Norte    
 6 COLORADO DO OESTE     Norte    
 7 CORUMBIARA            Norte    
 8 COSTA MARQUES         Norte    
 9 ESPIGÃO D'OESTE       Norte    
10 GUAJARÁ-MIRIM         Norte    
# ℹ 16,676 more rows

# nome da coluna contém um texto
select(dados_pnud, contains("_"))

# A tibble: 16,686 × 7
   muni_id muni_nm               uf_sigla regiao_nm idhm_e idhm_l idhm_r
     <dbl> <chr>                 <chr>    <chr>      <dbl>  <dbl>  <dbl>
 1 1100015 ALTA FLORESTA D'OESTE RO       Norte      0.112  0.617  0.516
 2 1100023 ARIQUEMES             RO       Norte      0.199  0.684  0.593
 3 1100031 CABIXI                RO       Norte      0.108  0.636  0.43 
 4 1100049 CACOAL                RO       Norte      0.171  0.667  0.593
 5 1100056 CEREJEIRAS            RO       Norte      0.167  0.629  0.547
 6 1100064 COLORADO DO OESTE     RO       Norte      0.151  0.658  0.536
 7 1100072 CORUMBIARA            RO       Norte      0.039  0.572  0.373
 8 1100080 COSTA MARQUES         RO       Norte      0.22   0.629  0.553
 9 1100098 ESPIGÃO D'OESTE       RO       Norte      0.159  0.653  0.561
10 1100106 GUAJARÁ-MIRIM         RO       Norte      0.247  0.662  0.625
# ℹ 16,676 more rows

select(dados_pnud, muni_nm, lat:lon, starts_with("idh"))

# A tibble: 16,686 × 7
   muni_nm                  lat   lon  idhm idhm_e idhm_l idhm_r
   <chr>                  <dbl> <dbl> <dbl>  <dbl>  <dbl>  <dbl>
 1 ALTA FLORESTA D'OESTE -11.9  -62.0 0.329  0.112  0.617  0.516
 2 ARIQUEMES              -9.91 -63.0 0.432  0.199  0.684  0.593
 3 CABIXI                -13.5  -60.5 0.309  0.108  0.636  0.43 
 4 CACOAL                -11.4  -61.4 0.407  0.171  0.667  0.593
 5 CEREJEIRAS            -13.2  -60.8 0.386  0.167  0.629  0.547
 6 COLORADO DO OESTE     -13.1  -60.5 0.376  0.151  0.658  0.536
 7 CORUMBIARA            -13.0  -60.9 0.203  0.039  0.572  0.373
 8 COSTA MARQUES         -12.4  -64.2 0.425  0.22   0.629  0.553
 9 ESPIGÃO D'OESTE       -11.5  -61.0 0.388  0.159  0.653  0.561
10 GUAJARÁ-MIRIM         -10.8  -65.3 0.468  0.247  0.662  0.625
# ℹ 16,676 more rows

# pacote tidyselect

# apenas colunas numéricas
select(dados_pnud, where(is.numeric))

# A tibble: 16,686 × 12
     ano muni_id  idhm idhm_e idhm_l idhm_r espvida  rdpc  gini   pop    lat
   <dbl>   <dbl> <dbl>  <dbl>  <dbl>  <dbl>   <dbl> <dbl> <dbl> <dbl>  <dbl>
 1  1991 1100015 0.329  0.112  0.617  0.516    62.0 198.   0.63 22835 -11.9 
 2  1991 1100023 0.432  0.199  0.684  0.593    66.0 319.   0.57 55018  -9.91
 3  1991 1100031 0.309  0.108  0.636  0.43     63.2 116.   0.7   5846 -13.5 
 4  1991 1100049 0.407  0.171  0.667  0.593    65.0 320.   0.66 66534 -11.4 
 5  1991 1100056 0.386  0.167  0.629  0.547    62.7 240.   0.6  19030 -13.2 
 6  1991 1100064 0.376  0.151  0.658  0.536    64.5 225.   0.62 25070 -13.1 
 7  1991 1100072 0.203  0.039  0.572  0.373    59.3  81.4  0.59 10737 -13.0 
 8  1991 1100080 0.425  0.22   0.629  0.553    62.8 250.   0.65  6902 -12.4 
 9  1991 1100098 0.388  0.159  0.653  0.561    64.2 263.   0.63 22505 -11.5 
10  1991 1100106 0.468  0.247  0.662  0.625    64.7 391.   0.6  31240 -10.8 
# ℹ 16,676 more rows
# ℹ 1 more variable: lon <dbl>

is.numeric(dados_pnud$ano)

[1] TRUE

is.numeric(dados_pnud$uf_sigla)

[1] FALSE

select(dados_pnud, where(is.character))

# A tibble: 16,686 × 3
   muni_nm               uf_sigla regiao_nm
   <chr>                 <chr>    <chr>    
 1 ALTA FLORESTA D'OESTE RO       Norte    
 2 ARIQUEMES             RO       Norte    
 3 CABIXI                RO       Norte    
 4 CACOAL                RO       Norte    
 5 CEREJEIRAS            RO       Norte    
 6 COLORADO DO OESTE     RO       Norte    
 7 CORUMBIARA            RO       Norte    
 8 COSTA MARQUES         RO       Norte    
 9 ESPIGÃO D'OESTE       RO       Norte    
10 GUAJARÁ-MIRIM         RO       Norte    
# ℹ 16,676 more rows

# is.factor() # dado categórico
# is.Date() # data

arrange

Podemos ordenar a base de dados com a função arrange().

Sintaxe: arrange(nome_da_base, coluna_para_usar_para_ordenar)

O padrão de ordenação é crescente:

arrange(dados_pnud, pop)

# A tibble: 16,686 × 15
     ano muni_id muni_nm   uf_sigla regiao_nm  idhm idhm_e idhm_l idhm_r espvida
   <dbl>   <dbl> <chr>     <chr>    <chr>     <dbl>  <dbl>  <dbl>  <dbl>   <dbl>
 1  1991 5107743 SANTA CR… MT       Centro-O… 0.397  0.138  0.708  0.642    67.5
 2  1991 5108303 UNIÃO DO… MT       Centro-O… 0.309  0.06   0.698  0.705    66.8
 3  1991 1100452 BURITIS   RO       Norte     0.325  0.113  0.638  0.474    63.3
 4  1991 5107875 SAPEZAL   MT       Centro-O… 0.341  0.077  0.78   0.663    71.8
 5  1991 1720150 SÃO FÉLI… TO       Norte     0.294  0.137  0.512  0.362    55.7
 6  1991 5102686 CAMPOS D… MT       Centro-O… 0.46   0.226  0.713  0.604    67.8
 7  1991 3507209 BORÁ      SP       Sudeste   0.506  0.307  0.76   0.555    70.6
 8  1991 5212253 LAGOA SA… GO       Centro-O… 0.382  0.141  0.718  0.551    68.1
 9  2000 5212253 LAGOA SA… GO       Centro-O… 0.559  0.366  0.815  0.585    73.9
10  2000 3507209 BORÁ      SP       Sudeste   0.649  0.527  0.794  0.652    72.6
# ℹ 16,676 more rows
# ℹ 5 more variables: rdpc <dbl>, gini <dbl>, pop <dbl>, lat <dbl>, lon <dbl>

Para ordenar de forma decrescente, podemos usar a função desc():

arrange(dados_pnud, desc(pop))

# A tibble: 16,686 × 15
     ano muni_id muni_nm   uf_sigla regiao_nm  idhm idhm_e idhm_l idhm_r espvida
   <dbl>   <dbl> <chr>     <chr>    <chr>     <dbl>  <dbl>  <dbl>  <dbl>   <dbl>
 1  2010 3550308 SÃO PAULO SP       Sudeste   0.805  0.725  0.855  0.843    76.3
 2  2000 3550308 SÃO PAULO SP       Sudeste   0.733  0.614  0.796  0.807    72.8
 3  1991 3550308 SÃO PAULO SP       Sudeste   0.626  0.421  0.742  0.784    69.5
 4  2010 3304557 RIO DE J… RJ       Sudeste   0.799  0.719  0.845  0.84     75.7
 5  2000 3304557 RIO DE J… RJ       Sudeste   0.716  0.607  0.754  0.803    70.3
 6  1991 3304557 RIO DE J… RJ       Sudeste   0.639  0.483  0.714  0.757    67.8
 7  2010 2927408 SALVADOR  BA       Nordeste  0.759  0.679  0.835  0.772    75.1
 8  2010 5300108 BRASÍLIA  DF       Centro-O… 0.824  0.742  0.873  0.863    77.4
 9  2010 2304400 FORTALEZA CE       Nordeste  0.754  0.695  0.824  0.749    74.4
10  2000 2927408 SALVADOR  BA       Nordeste  0.654  0.525  0.744  0.715    69.6
# ℹ 16,676 more rows
# ℹ 5 more variables: rdpc <dbl>, gini <dbl>, pop <dbl>, lat <dbl>, lon <dbl>

Podemos ordenar de acordo com os valores de duas colunas:

arrange(dados_pnud, desc(ano), desc(pop))

# A tibble: 16,686 × 15
     ano muni_id muni_nm   uf_sigla regiao_nm  idhm idhm_e idhm_l idhm_r espvida
   <dbl>   <dbl> <chr>     <chr>    <chr>     <dbl>  <dbl>  <dbl>  <dbl>   <dbl>
 1  2010 3550308 SÃO PAULO SP       Sudeste   0.805  0.725  0.855  0.843    76.3
 2  2010 3304557 RIO DE J… RJ       Sudeste   0.799  0.719  0.845  0.84     75.7
 3  2010 2927408 SALVADOR  BA       Nordeste  0.759  0.679  0.835  0.772    75.1
 4  2010 5300108 BRASÍLIA  DF       Centro-O… 0.824  0.742  0.873  0.863    77.4
 5  2010 2304400 FORTALEZA CE       Nordeste  0.754  0.695  0.824  0.749    74.4
 6  2010 3106200 Belo Hor… MG       Sudeste   0.81   0.737  0.856  0.841    76.4
 7  2010 1302603 MANAUS    AM       Norte     0.737  0.658  0.826  0.738    74.5
 8  2010 4106902 CURITIBA  PR       Sul       0.823  0.768  0.855  0.85     76.3
 9  2010 2611606 RECIFE    PE       Nordeste  0.772  0.698  0.825  0.798    74.5
10  2010 4314902 PORTO AL… RS       Sul       0.805  0.702  0.857  0.867    76.4
# ℹ 16,676 more rows
# ℹ 5 more variables: rdpc <dbl>, gini <dbl>, pop <dbl>, lat <dbl>, lon <dbl>

A ordenação de textos segue a ordem alfabética:

arrange(dados_pnud, muni_nm)

# A tibble: 16,686 × 15
     ano muni_id muni_nm   uf_sigla regiao_nm  idhm idhm_e idhm_l idhm_r espvida
   <dbl>   <dbl> <chr>     <chr>    <chr>     <dbl>  <dbl>  <dbl>  <dbl>   <dbl>
 1  1991 5200050 ABADIA D… GO       Centro-O… 0.408  0.183  0.658  0.563    64.5
 2  2000 5200050 ABADIA D… GO       Centro-O… 0.569  0.386  0.765  0.623    70.9
 3  2010 5200050 ABADIA D… GO       Centro-O… 0.708  0.622  0.83   0.687    74.8
 4  1991 5200100 ABADIÂNIA GO       Centro-O… 0.41   0.188  0.656  0.56     64.4
 5  2000 5200100 ABADIÂNIA GO       Centro-O… 0.503  0.292  0.73   0.598    68.8
 6  2010 5200100 ABADIÂNIA GO       Centro-O… 0.689  0.579  0.841  0.671    75.5
 7  1991 1500107 ABAETETU… PA       Norte     0.386  0.175  0.669  0.49     65.2
 8  2000 1500107 ABAETETU… PA       Norte     0.501  0.32   0.75   0.523    70.0
 9  2010 1500107 ABAETETU… PA       Norte     0.628  0.537  0.798  0.579    72.9
10  1991 2300101 ABAIARA   CE       Nordeste  0.286  0.103  0.6    0.377    61  
# ℹ 16,676 more rows
# ℹ 5 more variables: rdpc <dbl>, gini <dbl>, pop <dbl>, lat <dbl>, lon <dbl>

arrange(dados_pnud, muni_nm, .locale = "pt_BR")

# A tibble: 16,686 × 15
     ano muni_id muni_nm   uf_sigla regiao_nm  idhm idhm_e idhm_l idhm_r espvida
   <dbl>   <dbl> <chr>     <chr>    <chr>     <dbl>  <dbl>  <dbl>  <dbl>   <dbl>
 1  1991 5200050 ABADIA D… GO       Centro-O… 0.408  0.183  0.658  0.563    64.5
 2  2000 5200050 ABADIA D… GO       Centro-O… 0.569  0.386  0.765  0.623    70.9
 3  2010 5200050 ABADIA D… GO       Centro-O… 0.708  0.622  0.83   0.687    74.8
 4  1991 3100104 Abadia d… MG       Sudeste   0.449  0.225  0.728  0.551    68.7
 5  2000 3100104 Abadia d… MG       Sudeste   0.575  0.387  0.799  0.616    72.9
 6  2010 3100104 Abadia d… MG       Sudeste   0.689  0.563  0.839  0.693    75.4
 7  1991 5200100 ABADIÂNIA GO       Centro-O… 0.41   0.188  0.656  0.56     64.4
 8  2000 5200100 ABADIÂNIA GO       Centro-O… 0.503  0.292  0.73   0.598    68.8
 9  2010 5200100 ABADIÂNIA GO       Centro-O… 0.689  0.579  0.841  0.671    75.5
10  1991 3100203 Abaeté    MG       Sudeste   0.417  0.18   0.717  0.561    68.0
# ℹ 16,676 more rows
# ℹ 5 more variables: rdpc <dbl>, gini <dbl>, pop <dbl>, lat <dbl>, lon <dbl>

pipe

É comum fazer mais de uma operação em sequência. Por exemplo: selecionar colunas, e depois ordenar!

Objetivo: gerar uma base que tem as colunas referentes ao ano, sigla da UF, nome do município e população. Essa base deve estar ordenada por ano e população.

# forma 1
base_selecionada <- select(dados_pnud, ano, uf_sigla,  muni_nm, pop)
arrange(base_selecionada, ano, pop)

# A tibble: 16,686 × 4
     ano uf_sigla muni_nm                   pop
   <dbl> <chr>    <chr>                   <dbl>
 1  1991 MT       SANTA CRUZ DO XINGU       377
 2  1991 MT       UNIÃO DO SUL              405
 3  1991 RO       BURITIS                   500
 4  1991 MT       SAPEZAL                   547
 5  1991 TO       SÃO FÉLIX DO TOCANTINS    699
 6  1991 MT       CAMPOS DE JÚLIO           703
 7  1991 SP       BORÁ                      716
 8  1991 GO       LAGOA SANTA               741
 9  1991 TO       RIO DA CONCEIÇÃO          813
10  1991 MT       SANTA RITA DO TRIVELATO   813
# ℹ 16,676 more rows

# forma 2
arrange(select(dados_pnud, ano, uf_sigla,  muni_nm, pop), ano, pop)

# A tibble: 16,686 × 4
     ano uf_sigla muni_nm                   pop
   <dbl> <chr>    <chr>                   <dbl>
 1  1991 MT       SANTA CRUZ DO XINGU       377
 2  1991 MT       UNIÃO DO SUL              405
 3  1991 RO       BURITIS                   500
 4  1991 MT       SAPEZAL                   547
 5  1991 TO       SÃO FÉLIX DO TOCANTINS    699
 6  1991 MT       CAMPOS DE JÚLIO           703
 7  1991 SP       BORÁ                      716
 8  1991 GO       LAGOA SANTA               741
 9  1991 TO       RIO DA CONCEIÇÃO          813
10  1991 MT       SANTA RITA DO TRIVELATO   813
# ℹ 16,676 more rows
…
